TestingGrounds/Binaries/Win64/TestingGrounds-Win64-Shipping.exe	2018-06-15T08:58:14.384Z
Engine/Extras/Redist/en-us/UE4PrereqSetup_x64.exe	2018-04-23T23:19:09.158Z
Engine/Binaries/ThirdParty/Oculus/OVRPlugin/OVRPlugin/Win64/OVRPlugin.dll	2018-04-23T14:33:55.996Z
Engine/Binaries/ThirdParty/NVIDIA/NVaftermath/Win64/GFSDK_Aftermath_Lib.x64.dll	2018-04-23T14:33:55.214Z
Engine/Binaries/ThirdParty/Windows/DirectX/x64/WinPixEventRuntime.dll	2018-04-23T14:35:02.228Z
Engine/Binaries/ThirdParty/PhysX3/Win64/VS2015/PxFoundation_x64.dll	2018-04-23T14:34:56.568Z
Engine/Binaries/ThirdParty/PhysX3/Win64/VS2015/PxPvdSDK_x64.dll	2018-04-23T14:34:56.779Z
Engine/Binaries/ThirdParty/PhysX3/Win64/VS2015/PhysX3_x64.dll	2018-04-23T14:34:56.203Z
Engine/Binaries/ThirdParty/PhysX3/Win64/VS2015/PhysX3Cooking_x64.dll	2018-04-23T14:34:56.509Z
Engine/Binaries/ThirdParty/PhysX3/Win64/VS2015/PhysX3Common_x64.dll	2018-04-23T14:34:56.473Z
Engine/Binaries/ThirdParty/PhysX3/Win64/VS2015/APEX_Clothing_x64.dll	2018-04-23T14:34:49.593Z
Engine/Binaries/ThirdParty/PhysX3/Win64/VS2015/APEX_Legacy_x64.dll	2018-04-23T14:34:52.059Z
Engine/Binaries/ThirdParty/PhysX3/Win64/VS2015/ApexFramework_x64.dll	2018-04-23T14:34:53.994Z
Engine/Binaries/ThirdParty/PhysX3/Win64/VS2015/NvCloth_x64.dll	2018-04-23T14:34:54.501Z
Engine/Binaries/ThirdParty/Ogg/Win64/VS2015/libogg_64.dll	2018-04-23T14:33:56.031Z
Engine/Binaries/ThirdParty/Vorbis/Win64/VS2015/libvorbis_64.dll	2018-04-23T14:35:02.136Z
Engine/Binaries/ThirdParty/Vorbis/Win64/VS2015/libvorbisfile_64.dll	2018-04-23T14:35:02.145Z
Engine/Binaries/ThirdParty/OpenVR/OpenVRv1_0_10/Win64/openvr_api.dll	2018-04-23T14:33:56.166Z
TestingGrounds.exe	2018-06-15T08:58:40.931Z
